Đồ án CE118.Q17/single_cycle/simulation/qsim/project.msim.vcd
$comment
	File created using the following command:
		vcd file project.msim.vcd -direction
$end
$date
	Mon Dec 15 18:15:06 2025
$end
$version
	ModelSim Version 10.1d
$end
$timescale
	1ps
$end
$scope module project_vlg_vec_tst $end
$var reg 1 ! clk $end
$var wire 1 " A_RF [15] $end
$var wire 1 # A_RF [14] $end
$var wire 1 $ A_RF [13] $end
$var wire 1 % A_RF [12] $end
$var wire 1 & A_RF [11] $end
$var wire 1 ' A_RF [10] $end
$var wire 1 ( A_RF [9] $end
$var wire 1 ) A_RF [8] $end
$var wire 1 * A_RF [7] $end
$var wire 1 + A_RF [6] $end
$var wire 1 , A_RF [5] $end
$var wire 1 - A_RF [4] $end
$var wire 1 . A_RF [3] $end
$var wire 1 / A_RF [2] $end
$var wire 1 0 A_RF [1] $end
$var wire 1 1 A_RF [0] $end
$var wire 1 2 address [7] $end
$var wire 1 3 address [6] $end
$var wire 1 4 address [5] $end
$var wire 1 5 address [4] $end
$var wire 1 6 address [3] $end
$var wire 1 7 address [2] $end
$var wire 1 8 address [1] $end
$var wire 1 9 address [0] $end
$var wire 1 : B_RF [15] $end
$var wire 1 ; B_RF [14] $end
$var wire 1 < B_RF [13] $end
$var wire 1 = B_RF [12] $end
$var wire 1 > B_RF [11] $end
$var wire 1 ? B_RF [10] $end
$var wire 1 @ B_RF [9] $end
$var wire 1 A B_RF [8] $end
$var wire 1 B B_RF [7] $end
$var wire 1 C B_RF [6] $end
$var wire 1 D B_RF [5] $end
$var wire 1 E B_RF [4] $end
$var wire 1 F B_RF [3] $end
$var wire 1 G B_RF [2] $end
$var wire 1 H B_RF [1] $end
$var wire 1 I B_RF [0] $end
$var wire 1 J DAddress [4] $end
$var wire 1 K DAddress [3] $end
$var wire 1 L DAddress [2] $end
$var wire 1 M DAddress [1] $end
$var wire 1 N DAddress [0] $end
$var wire 1 O Doutput [15] $end
$var wire 1 P Doutput [14] $end
$var wire 1 Q Doutput [13] $end
$var wire 1 R Doutput [12] $end
$var wire 1 S Doutput [11] $end
$var wire 1 T Doutput [10] $end
$var wire 1 U Doutput [9] $end
$var wire 1 V Doutput [8] $end
$var wire 1 W Doutput [7] $end
$var wire 1 X Doutput [6] $end
$var wire 1 Y Doutput [5] $end
$var wire 1 Z Doutput [4] $end
$var wire 1 [ Doutput [3] $end
$var wire 1 \ Doutput [2] $end
$var wire 1 ] Doutput [1] $end
$var wire 1 ^ Doutput [0] $end
$var wire 1 _ imm [6] $end
$var wire 1 ` imm [5] $end
$var wire 1 a imm [4] $end
$var wire 1 b imm [3] $end
$var wire 1 c imm [2] $end
$var wire 1 d imm [1] $end
$var wire 1 e imm [0] $end
$var wire 1 f INSTRUCTION [15] $end
$var wire 1 g INSTRUCTION [14] $end
$var wire 1 h INSTRUCTION [13] $end
$var wire 1 i INSTRUCTION [12] $end
$var wire 1 j INSTRUCTION [11] $end
$var wire 1 k INSTRUCTION [10] $end
$var wire 1 l INSTRUCTION [9] $end
$var wire 1 m INSTRUCTION [8] $end
$var wire 1 n INSTRUCTION [7] $end
$var wire 1 o INSTRUCTION [6] $end
$var wire 1 p INSTRUCTION [5] $end
$var wire 1 q INSTRUCTION [4] $end
$var wire 1 r INSTRUCTION [3] $end
$var wire 1 s INSTRUCTION [2] $end
$var wire 1 t INSTRUCTION [1] $end
$var wire 1 u INSTRUCTION [0] $end
$var wire 1 v result [15] $end
$var wire 1 w result [14] $end
$var wire 1 x result [13] $end
$var wire 1 y result [12] $end
$var wire 1 z result [11] $end
$var wire 1 { result [10] $end
$var wire 1 | result [9] $end
$var wire 1 } result [8] $end
$var wire 1 ~ result [7] $end
$var wire 1 !! result [6] $end
$var wire 1 "! result [5] $end
$var wire 1 #! result [4] $end
$var wire 1 $! result [3] $end
$var wire 1 %! result [2] $end
$var wire 1 &! result [1] $end
$var wire 1 '! result [0] $end
$var wire 1 (! wa [2] $end
$var wire 1 )! wa [1] $end
$var wire 1 *! wa [0] $end
$var wire 1 +! sampler $end
$scope module i1 $end
$var wire 1 ,! gnd $end
$var wire 1 -! vcc $end
$var wire 1 .! unknown $end
$var tri1 1 /! devclrn $end
$var tri1 1 0! devpor $end
$var tri1 1 1! devoe $end
$var wire 1 2! inst27|inst|inst7|inst7|$00000|auto_generated|result_node[10]~4_combout $end
$var wire 1 3! inst27|inst|inst7|inst7|$00000|auto_generated|result_node[3]~11_combout $end
$var wire 1 4! inst27|inst|inst7|inst7|$00000|auto_generated|result_node[1]~13_combout $end
$var wire 1 5! inst3|$00000|auto_generated|result_node[14]~2_combout $end
$var wire 1 6! inst27|inst1|inst68|$00000|auto_generated|result_node[12]~2_combout $end
$var wire 1 7! inst27|inst1|inst68|$00000|auto_generated|result_node[9]~5_combout $end
$var wire 1 8! inst27|inst1|inst68|$00000|auto_generated|result_node[8]~6_combout $end
$var wire 1 9! inst27|inst1|inst68|$00000|auto_generated|result_node[7]~7_combout $end
$var wire 1 :! inst27|inst2|$00000|auto_generated|result_node[1]~26_combout $end
$var wire 1 ;! inst27|inst|inst2|inst11|inst1~0_combout $end
$var wire 1 <! inst27|inst2|$00000|auto_generated|result_node[15]~30_combout $end
$var wire 1 =! inst27|inst1|inst56~combout $end
$var wire 1 >! inst27|inst1|inst40~combout $end
$var wire 1 ?! inst27|inst1|inst64~combout $end
$var wire 1 @! inst14|inst2~0_combout $end
$var wire 1 A! inst14|inst2~regout $end
$var wire 1 B! inst14|inst5~0_combout $end
$var wire 1 C! inst14|inst5~regout $end
$var wire 1 D! inst14|inst1~0_combout $end
$var wire 1 E! inst14|inst1~regout $end
$var wire 1 F! inst4|my_mem~0_combout $end
$var wire 1 G! inst14|inst4~0_combout $end
$var wire 1 H! inst14|inst4~regout $end
$var wire 1 I! inst14|inst7~0_combout $end
$var wire 1 J! inst14|inst7~regout $end
$var wire 1 K! inst14|inst3~0_combout $end
$var wire 1 L! inst14|inst3~regout $end
$var wire 1 M! inst14|inst6~0_combout $end
$var wire 1 N! inst14|inst6~regout $end
$var wire 1 O! inst4|my_mem~1_combout $end
$var wire 1 P! inst4|my_mem~2_combout $end
$var wire 1 Q! inst4|my_mem~3_combout $end
$var wire 1 R! inst4|my_mem~4_combout $end
$var wire 1 S! inst4|my_mem~8_combout $end
$var wire 1 T! inst1|inst2|$00000|auto_generated|result_node[1]~2_combout $end
$var wire 1 U! inst27|inst2|$00000|auto_generated|result_node[14]~16_combout $end
$var wire 1 V! inst27|inst2|$00000|auto_generated|result_node[14]~33_combout $end
$var wire 1 W! inst4|my_mem~5_combout $end
$var wire 1 X! inst4|my_mem~6_combout $end
$var wire 1 Y! inst4|my_mem~7_combout $end
$var wire 1 Z! inst2|inst4|inst81~1_combout $end
$var wire 1 [! inst1|inst2|$00000|auto_generated|result_node[0]~3_combout $end
$var wire 1 \! inst27|inst|inst7|inst7|$00000|auto_generated|result_node[3]~1_combout $end
$var wire 1 ]! inst27|inst1|inst68|$00000|auto_generated|result_node[13]~1_combout $end
$var wire 1 ^! inst3|$00000|auto_generated|result_node[12]~3_combout $end
$var wire 1 _! inst27|inst|inst7|inst7|$00000|auto_generated|result_node[12]~2_combout $end
$var wire 1 `! inst2|inst4|inst60~1_combout $end
$var wire 1 a! inst27|inst|inst7|inst7|$00000|auto_generated|result_node[11]~3_combout $end
$var wire 1 b! inst3|$00000|auto_generated|result_node[10]~4_combout $end
$var wire 1 c! inst27|inst1|inst68|$00000|auto_generated|result_node[10]~4_combout $end
$var wire 1 d! inst2|inst4|inst74~1_combout $end
$var wire 1 e! inst27|inst1|inst44~combout $end
$var wire 1 f! inst27|inst1|inst60~combout $end
$var wire 1 g! inst2|inst4|inst53~1_combout $end
$var wire 1 h! inst3|$00000|auto_generated|result_node[8]~5_combout $end
$var wire 1 i! inst2|inst4|inst46~1_combout $end
$var wire 1 j! inst27|inst10|inst233~combout $end
$var wire 1 k! inst27|inst1|inst66~combout $end
$var wire 1 l! inst3|$00000|auto_generated|result_node[6]~6_combout $end
$var wire 1 m! inst2|inst4|inst39~1_combout $end
$var wire 1 n! inst27|inst1|inst68|$00000|auto_generated|result_node[6]~8_combout $end
$var wire 1 o! inst2|inst4|inst32~1_combout $end
$var wire 1 p! inst27|inst10|inst171~combout $end
$var wire 1 q! inst27|inst1|inst68|$00000|auto_generated|result_node[5]~9_combout $end
$var wire 1 r! inst27|inst8|$00000|auto_generated|result_node[4]~6_combout $end
$var wire 1 s! inst25|inst8|inst4~combout $end
$var wire 1 t! inst25|inst5|inst4~combout $end
$var wire 1 u! inst14|inst~0_combout $end
$var wire 1 v! inst14|inst~regout $end
$var wire 1 w! inst27|inst8|$00000|auto_generated|result_node[4]~3_combout $end
$var wire 1 x! inst27|inst8|$00000|auto_generated|result_node[4]~41_combout $end
$var wire 1 y! inst9|$00000|auto_generated|result_node[4]~51_combout $end
$var wire 1 z! inst2|inst1|inst~0_combout $end
$var wire 1 {! inst2|inst|inst24~regout $end
$var wire 1 |! inst27|inst|inst7|inst7|$00000|auto_generated|result_node[4]~10_combout $end
$var wire 1 }! inst2|inst4|inst25~1_combout $end
$var wire 1 ~! inst27|inst1|inst68|$00000|auto_generated|result_node[3]~10_combout $end
$var wire 1 !" inst27|inst10|inst110~combout $end
$var wire 1 "" inst27|inst1|inst54~combout $end
$var wire 1 #" inst3|$00000|auto_generated|result_node[2]~0_combout $end
$var wire 1 $" inst27|inst1|inst68|$00000|auto_generated|result_node[2]~11_combout $end
$var wire 1 %" inst27|inst|inst7|inst7|$00000|auto_generated|result_node[2]~12_combout $end
$var wire 1 &" inst27|inst2|$00000|auto_generated|result_node[1]~32_combout $end
$var wire 1 '" inst27|inst2|$00000|auto_generated|result_node[1]~25_combout $end
$var wire 1 (" inst27|inst2|$00000|auto_generated|result_node[1]~23_combout $end
$var wire 1 )" inst4|my_mem~9_combout $end
$var wire 1 *" inst3|$00000|auto_generated|result_node[0]~1_combout $end
$var wire 1 +" inst2|inst5|inst110~1_combout $end
$var wire 1 ," inst27|inst|inst2|inst11|inst5~0_combout $end
$var wire 1 -" inst27|inst2|$00000|auto_generated|result_node[1]~24_combout $end
$var wire 1 ." inst27|inst2|$00000|auto_generated|result_node[1]~27_combout $end
$var wire 1 /" inst9|$00000|auto_generated|result_node[1]~53_combout $end
$var wire 1 0" inst2|inst|inst104~regout $end
$var wire 1 1" inst2|inst4|inst109~1_combout $end
$var wire 1 2" inst27|inst|inst2|inst10|inst5~0_combout $end
$var wire 1 3" inst27|inst|inst2|inst9|inst1~combout $end
$var wire 1 4" inst27|inst8|$00000|auto_generated|result_node[2]~39_combout $end
$var wire 1 5" inst27|inst8|$00000|auto_generated|result_node[2]~40_combout $end
$var wire 1 6" inst9|$00000|auto_generated|result_node[2]~55_combout $end
$var wire 1 7" inst2|inst|inst105~regout $end
$var wire 1 8" inst2|inst4|inst106~1_combout $end
$var wire 1 9" inst27|inst|inst2|inst9|inst5~0_combout $end
$var wire 1 :" inst27|inst|inst2|inst8|inst1~combout $end
$var wire 1 ;" inst27|inst8|$00000|auto_generated|result_node[3]~37_combout $end
$var wire 1 <" inst27|inst8|$00000|auto_generated|result_node[3]~38_combout $end
$var wire 1 =" inst9|$00000|auto_generated|result_node[3]~52_combout $end
$var wire 1 >" inst2|inst|inst17~regout $end
$var wire 1 ?" inst2|inst4|inst18~1_combout $end
$var wire 1 @" inst27|inst|inst2|inst8|inst5~0_combout $end
$var wire 1 A" inst27|inst|inst2|inst7|inst5~0_combout $end
$var wire 1 B" inst27|inst|inst2|inst6|inst1~combout $end
$var wire 1 C" inst27|inst8|$00000|auto_generated|result_node[5]~35_combout $end
$var wire 1 D" inst27|inst8|$00000|auto_generated|result_node[5]~36_combout $end
$var wire 1 E" inst9|$00000|auto_generated|result_node[5]~50_combout $end
$var wire 1 F" inst2|inst|inst31~regout $end
$var wire 1 G" inst27|inst|inst7|inst7|$00000|auto_generated|result_node[5]~9_combout $end
$var wire 1 H" inst27|inst|inst2|inst6|inst5~0_combout $end
$var wire 1 I" inst27|inst|inst2|inst5|inst1~combout $end
$var wire 1 J" inst27|inst8|$00000|auto_generated|result_node[6]~33_combout $end
$var wire 1 K" inst27|inst8|$00000|auto_generated|result_node[6]~34_combout $end
$var wire 1 L" inst9|$00000|auto_generated|result_node[6]~49_combout $end
$var wire 1 M" inst2|inst|inst38~regout $end
$var wire 1 N" inst27|inst|inst7|inst7|$00000|auto_generated|result_node[6]~8_combout $end
$var wire 1 O" inst27|inst|inst2|inst5|inst5~0_combout $end
$var wire 1 P" inst27|inst|inst2|inst|inst1~combout $end
$var wire 1 Q" inst27|inst8|$00000|auto_generated|result_node[7]~31_combout $end
$var wire 1 R" inst27|inst8|$00000|auto_generated|result_node[7]~32_combout $end
$var wire 1 S" inst9|$00000|auto_generated|result_node[7]~48_combout $end
$var wire 1 T" inst2|inst|inst45~regout $end
$var wire 1 U" inst27|inst|inst7|inst7|$00000|auto_generated|result_node[7]~7_combout $end
$var wire 1 V" inst27|inst|inst2|inst|inst5~0_combout $end
$var wire 1 W" inst27|inst|inst|inst11|inst1~combout $end
$var wire 1 X" inst27|inst8|$00000|auto_generated|result_node[8]~29_combout $end
$var wire 1 Y" inst27|inst8|$00000|auto_generated|result_node[8]~30_combout $end
$var wire 1 Z" inst9|$00000|auto_generated|result_node[8]~47_combout $end
$var wire 1 [" inst2|inst|inst52~regout $end
$var wire 1 \" inst27|inst|inst7|inst7|$00000|auto_generated|result_node[8]~6_combout $end
$var wire 1 ]" inst27|inst|inst|inst11|inst5~0_combout $end
$var wire 1 ^" inst27|inst|inst|inst10|inst1~combout $end
$var wire 1 _" inst27|inst8|$00000|auto_generated|result_node[9]~27_combout $end
$var wire 1 `" inst27|inst8|$00000|auto_generated|result_node[9]~28_combout $end
$var wire 1 a" inst9|$00000|auto_generated|result_node[9]~46_combout $end
$var wire 1 b" inst2|inst|inst73~regout $end
$var wire 1 c" inst27|inst|inst7|inst7|$00000|auto_generated|result_node[9]~5_combout $end
$var wire 1 d" inst27|inst|inst|inst10|inst5~0_combout $end
$var wire 1 e" inst27|inst|inst|inst9|inst1~combout $end
$var wire 1 f" inst27|inst8|$00000|auto_generated|result_node[10]~25_combout $end
$var wire 1 g" inst27|inst8|$00000|auto_generated|result_node[10]~26_combout $end
$var wire 1 h" inst9|$00000|auto_generated|result_node[10]~45_combout $end
$var wire 1 i" inst2|inst|inst66~regout $end
$var wire 1 j" inst2|inst4|inst67~1_combout $end
$var wire 1 k" inst27|inst|inst|inst9|inst5~0_combout $end
$var wire 1 l" inst27|inst|inst|inst8|inst5~0_combout $end
$var wire 1 m" inst27|inst|inst|inst7|inst1~combout $end
$var wire 1 n" inst27|inst8|$00000|auto_generated|result_node[12]~21_combout $end
$var wire 1 o" inst27|inst8|$00000|auto_generated|result_node[12]~22_combout $end
$var wire 1 p" inst9|$00000|auto_generated|result_node[12]~43_combout $end
$var wire 1 q" inst2|inst|inst94~regout $end
$var wire 1 r" inst2|inst4|inst95~1_combout $end
$var wire 1 s" inst27|inst|inst|inst7|inst5~0_combout $end
$var wire 1 t" inst27|inst|inst|inst6|inst1~combout $end
$var wire 1 u" inst27|inst8|$00000|auto_generated|result_node[13]~19_combout $end
$var wire 1 v" inst27|inst8|$00000|auto_generated|result_node[13]~20_combout $end
$var wire 1 w" inst9|$00000|auto_generated|result_node[13]~42_combout $end
$var wire 1 x" inst2|inst|inst87~regout $end
$var wire 1 y" inst27|inst|inst7|inst7|$00000|auto_generated|result_node[13]~0_combout $end
$var wire 1 z" inst27|inst|inst|inst6|inst5~0_combout $end
$var wire 1 {" inst27|inst1|inst68|$00000|auto_generated|result_node[14]~0_combout $end
$var wire 1 |" inst27|inst|inst|inst5|inst1~combout $end
$var wire 1 }" inst27|inst2|$00000|auto_generated|result_node[14]~21_combout $end
$var wire 1 ~" inst27|inst2|$00000|auto_generated|result_node[14]~22_combout $end
$var wire 1 !# inst9|$00000|auto_generated|result_node[14]~41_combout $end
$var wire 1 "# inst2|inst|inst80~regout $end
$var wire 1 ## inst27|inst|inst7|inst7|$00000|auto_generated|result_node[14]~14_combout $end
$var wire 1 $# inst27|inst2|$00000|auto_generated|result_node[15]~31_combout $end
$var wire 1 %# inst27|inst2|$00000|auto_generated|result_node[15]~17_combout $end
$var wire 1 &# inst27|inst2|$00000|auto_generated|result_node[15]~34_combout $end
$var wire 1 '# inst27|inst2|$00000|auto_generated|result_node[15]~35_combout $end
$var wire 1 (# inst27|inst2|$00000|auto_generated|result_node[15]~18_combout $end
$var wire 1 )# inst27|inst2|$00000|auto_generated|result_node[15]~19_combout $end
$var wire 1 *# inst9|$00000|auto_generated|result_node[15]~40_combout $end
$var wire 1 +# inst2|inst|inst1000~regout $end
$var wire 1 ,# inst2|inst4|inst102~1_combout $end
$var wire 1 -# inst2|inst4|inst88~1_combout $end
$var wire 1 .# clk~combout $end
$var wire 1 /# clk~clkctrl_outclk $end
$var wire 1 0# inst27|inst1|inst68|$00000|auto_generated|result_node[11]~3_combout $end
$var wire 1 1# inst27|inst1|inst46~combout $end
$var wire 1 2# inst27|inst1|inst62~combout $end
$var wire 1 3# inst27|inst|inst|inst8|inst1~combout $end
$var wire 1 4# inst27|inst8|$00000|auto_generated|result_node[11]~23_combout $end
$var wire 1 5# inst27|inst8|$00000|auto_generated|result_node[11]~24_combout $end
$var wire 1 6# inst9|$00000|auto_generated|result_node[11]~44_combout $end
$var wire 1 7# inst2|inst|inst59~regout $end
$var wire 1 8# inst27|inst1|inst68|$00000|auto_generated|result_node[0]~12_combout $end
$var wire 1 9# inst27|inst2|$00000|auto_generated|result_node[0]~28_combout $end
$var wire 1 :# inst27|inst2|$00000|auto_generated|result_node[0]~29_combout $end
$var wire 1 ;# inst9|$00000|auto_generated|result_node[0]~54_combout $end
$var wire 1 <# inst2|inst|inst103~regout $end
$var wire 1 =# inst27|inst2|$00000|auto_generated|result_node[15]~20_combout $end
$var wire 1 ># inst15|$00000|auto_generated|result_node[2]~2_combout $end
$var wire 1 ?# inst15|$00000|auto_generated|result_node[1]~3_combout $end
$var wire 1 @# inst15|$00000|auto_generated|result_node[0]~4_combout $end
$upscope $end
$upscope $end
$enddefinitions $end
#0
$dumpvars
0!
11
00
0/
0.
0-
0,
0+
0*
0)
0(
0'
0&
0%
0$
0#
0"
09
08
07
06
05
04
03
02
0I
0H
0G
0F
0E
0D
0C
0B
0A
0@
0?
0>
0=
0<
0;
0:
1N
0M
0L
0K
0J
z^
z]
z\
z[
zZ
zY
zX
zW
zV
zU
zT
zS
zR
zQ
zP
zO
1e
0d
0c
0b
0a
0`
0_
1u
0t
0s
0r
0q
0p
0o
0n
0m
0l
1k
0j
0i
1h
1g
1f
0'!
1&!
0%!
0$!
0#!
0"!
0!!
0~
0}
0|
0{
0z
0y
0x
0w
0v
1*!
0)!
0(!
x+!
0,!
1-!
x.!
1/!
10!
11!
02!
03!
04!
05!
06!
07!
08!
09!
1:!
0;!
0<!
0=!
0>!
0?!
0@!
0A!
0B!
0C!
0D!
0E!
1F!
1G!
0H!
0I!
0J!
0K!
0L!
0M!
0N!
0O!
1P!
0Q!
0R!
1S!
1T!
0U!
1V!
0W!
0X!
1Y!
0Z!
0[!
0\!
0]!
0^!
0_!
0`!
0a!
0b!
0c!
0d!
0e!
0f!
0g!
0h!
0i!
0j!
0k!
0l!
0m!
0n!
0o!
0p!
0q!
0r!
0s!
0t!
0u!
0v!
0w!
0x!
0y!
0z!
0{!
0|!
0}!
0~!
0!"
0""
0#"
0$"
0%"
0&"
0'"
0("
1)"
1*"
1+"
1,"
1-"
1."
0/"
00"
01"
02"
03"
04"
05"
06"
07"
08"
09"
0:"
0;"
0<"
0="
0>"
0?"
0@"
0A"
0B"
0C"
0D"
0E"
0F"
0G"
0H"
0I"
0J"
0K"
0L"
0M"
0N"
0O"
0P"
0Q"
0R"
0S"
0T"
0U"
0V"
0W"
0X"
0Y"
0Z"
0["
0\"
0]"
0^"
0_"
0`"
0a"
0b"
0c"
0d"
0e"
0f"
0g"
0h"
0i"
0j"
0k"
0l"
0m"
0n"
0o"
0p"
0q"
0r"
0s"
0t"
0u"
0v"
0w"
0x"
0y"
0z"
0{"
0|"
0}"
0~"
0!#
0"#
0##
0$#
0%#
0&#
0'#
0(#
0)#
0*#
0+#
0,#
0-#
0.#
0/#
00#
01#
02#
03#
04#
05#
06#
07#
18#
09#
0:#
1;#
0<#
0=#
1>#
1?#
1@#
$end
#5270
1!
1.#
1/#
0+!
1H!
0@#
0)"
0Y!
1W!
1I!
0G!
19
0*"
0;#
08#
0+"
0?#
1X!
0*!
0e
0N
0u
0k
0,"
11"
1/"
1&"
14!
01
1d
1M
1t
1j
1)!
12"
0-"
1'"
1("
10
13"
1-"
14"
0."
15"
0&!
1%!
#10540
0!
0.#
0/#
1+!
#15810
1!
1.#
1/#
0+!
1J!
0H!
1@#
1)"
1Y!
1G!
18
09
1*"
1;#
1+"
1*!
1e
1N
1u
1k
1,"
18#
11
0-"
1."
1&!
#21080
0!
0.#
0/#
1+!
#26350
1!
1.#
1/#
0+!
1H!
0@#
0)"
0Y!
0W!
1Q!
1K!
0I!
0G!
19
0*"
0;#
08#
0+"
1?#
0X!
0>#
16"
1#"
1R!
0*!
0e
0N
0u
0k
0,"
18"
01"
0/"
0&"
04!
1%"
01
0d
0M
0t
0j
1c
1L
1s
1i
0)!
1(!
02"
1-"
19"
1$"
0'"
0("
1/
00
03"
1:"
0-"
04"
1;"
0."
05"
1<"
0&!
0%!
1$!
#31620
0!
0.#
0/#
1+!
#36890
1!
1.#
1/#
0+!
1L!
0J!
0H!
1@#
1)"
1Y!
1G!
17
08
09
1*"
1;#
1+"
1*!
1e
1N
1u
1k
1,"
18#
11
1-"
1."
1&!
#42160
0!
0.#
0/#
1+!
#47430
1!
1.#
1/#
0+!
1H!
0@#
0)"
0Y!
1W!
1I!
0G!
19
0*"
0;#
08#
0+"
0?#
1X!
0*!
0e
0N
0u
0k
0,"
11"
1/"
1&"
14!
01
1d
1M
1t
1j
1)!
12"
0-"
1'"
1("
10
13"
1-"
14"
0."
15"
0&!
1%!
#52700
0!
0.#
0/#
1+!
#57970
1!
1.#
1/#
0+!
1J!
0H!
1@#
1)"
1Y!
1G!
18
09
1*"
1;#
1+"
1*!
1e
1N
1u
1k
1,"
18#
11
0-"
1."
1&!
#63240
0!
0.#
0/#
1+!
#68510
1!
1.#
1/#
0+!
1H!
0@#
0)"
1r!
0Y!
0W!
0Q!
1O!
1M!
0K!
0I!
0G!
19
0*"
1w!
0;#
08#
0+"
1z!
1?#
0X!
1>#
0#"
0R!
1="
0&"
0P!
0*!
0e
0N
0u
0k
0,"
08"
01"
04!
0%"
0$"
01
0d
0M
0t
0j
0c
0L
0s
0i
0h
0g
0f
0)!
0(!
02"
1-"
09"
0'"
0("
0/
00
03"
0:"
0-"
04"
0;"
0."
05"
0<"
0/"
0&!
06"
0="
0%!
0$!
#73780
0!
0.#
0/#
1+!
#79050
1!
1.#
1/#
0+!
1N!
0L!
0J!
0H!
0r!
1G!
16
07
08
09
0w!
#84320
0!
0.#
0/#
1+!
#89590
1!
1.#
1/#
0+!
1H!
1I!
0G!
19
#94860
0!
0.#
0/#
1+!
#100130
1!
1.#
1/#
0+!
1J!
0H!
1G!
18
09
#105400
0!
0.#
0/#
1+!
#110670
1!
1.#
1/#
0+!
1H!
1K!
0I!
0G!
19
#115940
0!
0.#
0/#
1+!
#121210
1!
1.#
1/#
0+!
1L!
0J!
0H!
1G!
17
08
09
#126480
0!
0.#
0/#
1+!
#131750
1!
1.#
1/#
0+!
1H!
1I!
0G!
19
#137020
0!
0.#
0/#
1+!
#142290
1!
1.#
1/#
0+!
1J!
0H!
1G!
18
09
#147560
0!
0.#
0/#
1+!
#152830
1!
1.#
1/#
0+!
1H!
1s!
1r!
0M!
0K!
0I!
0G!
19
1@!
1w!
#158100
0!
0.#
0/#
1+!
#163370
1!
1.#
1/#
0+!
0N!
0L!
0J!
0H!
1A!
1)"
0s!
1[!
1Y!
0O!
0r!
1G!
0F!
1B!
0@!
06
07
08
09
15
0B!
1@!
1%#
1##
1y"
1c"
1\"
1U"
1N"
1G"
1,"
1%"
1|!
1a!
1_!
14!
13!
12!
1+"
0[!
0w!
0Y!
1e
1N
1u
1k
1'#
1|"
1t"
1^"
1W"
1P"
1I"
1B"
12"
1-"
13"
13#
1m"
1("
1:"
1e"
0,"
1;!
0%#
0##
0y"
0c"
0\"
0U"
0N"
0G"
0%"
0|!
0a!
0_!
04!
03!
02!
0+"
11
0e
0N
0u
0k
1(#
1}"
1u"
1_"
1X"
1Q"
1J"
1C"
1."
14"
14#
1n"
1;"
1f"
02"
19#
0'#
0|"
0t"
0^"
0W"
0P"
0I"
0B"
03#
0m"
0("
0:"
0e"
0;!
01
1=#
1*#
1~"
1v"
1`"
1Y"
1R"
1K"
1D"
1/"
15"
15#
1o"
1<"
1g"
03"
1:#
0(#
0}"
0u"
0_"
0X"
0Q"
0J"
0C"
04#
0n"
0-"
0;"
0f"
09#
1&!
1!#
1w"
1a"
1Z"
1S"
1L"
1E"
16"
16#
1p"
1="
1h"
04"
1;#
0=#
0*#
0~"
0v"
0`"
0Y"
0R"
0K"
0D"
05#
0o"
0."
0<"
0g"
0:#
1v
1w
1x
1|
1}
1~
1!!
1"!
1%!
1z
1y
1$!
1{
1'!
05"
0!#
0w"
0a"
0Z"
0S"
0L"
0E"
06#
0p"
0/"
0="
0h"
0;#
0v
0w
0x
0|
0}
0~
0!!
0"!
0z
0y
0&!
0$!
0{
0'!
06"
0%!
#168640
0!
0.#
0/#
1+!
#173910
1!
1.#
1/#
0+!
1H!
0)"
1I!
0G!
19
#179180
0!
0.#
0/#
1+!
#184450
1!
1.#
1/#
0+!
1J!
0H!
1)"
1G!
18
09
#189720
0!
0.#
0/#
1+!
#194990
1!
1.#
1/#
0+!
1H!
0)"
1Q!
1K!
0I!
0G!
19
#200260
0!
0.#
0/#
1+!
#205530
1!
1.#
1/#
0+!
1L!
0J!
0H!
1)"
1G!
17
08
09
#210800
0!
0.#
0/#
1+!
#216070
1!
1.#
1/#
0+!
1H!
0)"
1I!
0G!
19
#221340
0!
0.#
0/#
1+!
#226610
1!
1.#
1/#
0+!
1J!
0H!
1)"
1G!
18
09
#231880
0!
0.#
0/#
1+!
#237150
1!
1.#
1/#
0+!
1H!
0)"
1r!
0Q!
1O!
1M!
0K!
0I!
0G!
19
1w!
#242420
0!
0.#
0/#
1+!
#247690
1!
1.#
1/#
0+!
1N!
0L!
0J!
0H!
0r!
1G!
16
07
08
09
0w!
#252960
0!
0.#
0/#
1+!
#258230
1!
1.#
1/#
0+!
1H!
1I!
0G!
19
#263500
0!
0.#
0/#
1+!
#268770
1!
1.#
1/#
0+!
1J!
0H!
1G!
18
09
#274040
0!
0.#
0/#
1+!
#279310
1!
1.#
1/#
0+!
1H!
1K!
0I!
0G!
19
#284580
0!
0.#
0/#
1+!
#289850
1!
1.#
1/#
0+!
1L!
0J!
0H!
1G!
17
08
09
#295120
0!
0.#
0/#
1+!
#300390
1!
1.#
1/#
0+!
1H!
1I!
0G!
19
#305660
0!
0.#
0/#
1+!
#310930
1!
1.#
1/#
0+!
1J!
0H!
1G!
18
09
#316200
0!
0.#
0/#
1+!
#321470
1!
1.#
1/#
0+!
1H!
1s!
1r!
0M!
0K!
0I!
0G!
19
1B!
0@!
1w!
#326740
0!
0.#
0/#
1+!
#332010
1!
1.#
1/#
0+!
0N!
0L!
0J!
0H!
1C!
0A!
1)"
0s!
0O!
0r!
1G!
0S!
1@!
06
07
08
09
14
05
0@!
#337280
0!
0.#
0/#
1+!
#342550
1!
1.#
1/#
0+!
1H!
0)"
1W!
1I!
0G!
19
#347820
0!
0.#
0/#
1+!
#353090
1!
1.#
1/#
0+!
1J!
0H!
1)"
1G!
18
09
#358360
0!
0.#
0/#
1+!
#363630
1!
1.#
1/#
0+!
1H!
0)"
0W!
1Q!
1K!
0I!
0G!
19
#368900
0!
0.#
0/#
1+!
#374170
1!
1.#
1/#
0+!
1L!
0J!
0H!
1)"
1G!
17
08
09
#379440
0!
0.#
0/#
1+!
#384710
1!
1.#
1/#
0+!
1H!
0)"
1W!
1I!
0G!
19
#389980
0!
0.#
0/#
1+!
#395250
1!
1.#
1/#
0+!
1J!
0H!
1)"
1G!
18
09
#400520
0!
0.#
0/#
1+!
#405790
1!
1.#
1/#
0+!
1H!
0)"
1r!
0W!
0Q!
1O!
1M!
0K!
0I!
0G!
19
#411060
0!
0.#
0/#
1+!
#416330
1!
1.#
1/#
0+!
1N!
0L!
0J!
0H!
0r!
1G!
16
07
08
09
#421600
0!
0.#
0/#
1+!
#426870
1!
1.#
1/#
0+!
1H!
1I!
0G!
19
#432140
0!
0.#
0/#
1+!
#437410
1!
1.#
1/#
0+!
1J!
0H!
1G!
18
09
#442680
0!
0.#
0/#
1+!
#447950
1!
1.#
1/#
0+!
1H!
1K!
0I!
0G!
19
#453220
0!
0.#
0/#
1+!
#458490
1!
1.#
1/#
0+!
1L!
0J!
0H!
1G!
17
08
09
#463760
0!
0.#
0/#
1+!
#469030
1!
1.#
1/#
0+!
1H!
1I!
0G!
19
#474300
0!
0.#
0/#
1+!
#479570
1!
1.#
1/#
0+!
1J!
0H!
1G!
18
09
#484840
0!
0.#
0/#
1+!
#490110
1!
1.#
1/#
0+!
1H!
1s!
1r!
0M!
0K!
0I!
0G!
19
1@!
#495380
0!
0.#
0/#
1+!
#500650
1!
1.#
1/#
0+!
0N!
0L!
0J!
0H!
1A!
1)"
0s!
0O!
0r!
1G!
1D!
0B!
0@!
06
07
08
09
15
0D!
1B!
1@!
#505920
0!
0.#
0/#
1+!
